R ile Veri Analizi
…
— .class #id

Verileri Gzden Geirme (Alt.)

     library(dplyr)

     tbl_df(flights)

## # A tibble: 227,496 x 14
##                   date  hour minute   dep   arr dep_delay arr_delay
##                  <chr> <int>  <int> <int> <int>     <int>     <int>
## 1  2011-01-01 12:00:00    14      0  1400  1500         0       -10
## 2  2011-01-02 12:00:00    14      1  1401  1501         1        -9
## 3  2011-01-03 12:00:00    13     52  1352  1502        -8        -8
## 4  2011-01-04 12:00:00    14      3  1403  1513         3         3
## 5  2011-01-05 12:00:00    14      5  1405  1507         5        -3
## 6  2011-01-06 12:00:00    13     59  1359  1503        -1        -7
## 7  2011-01-07 12:00:00    13     59  1359  1509        -1        -1
## 8  2011-01-08 12:00:00    13     55  1355  1454        -5       -16
## 9  2011-01-09 12:00:00    14     43  1443  1554        43        44
## 10 2011-01-10 12:00:00    14     43  1443  1553        43        43
## # ... with 227,486 more rows, and 7 more variables: carrier <chr>,
## #   flight <int>, dest <chr>, plane <chr>, cancelled <int>, time <int>,
## #   dist <int>

— .class #id

Dier Veriler

     tbl_df(weather)

## # A tibble: 8,723 x 14
##          date  hour  temp dew_point humidity pressure visibility wind_dir
##         <chr> <int> <dbl>     <dbl>    <int>    <dbl>      <dbl>    <chr>
## 1  2011-01-01     0  59.0      28.9       32    29.86         10      NNE
## 2  2011-01-01     1  57.2      28.4       33    29.88         10      NNE
## 3  2011-01-01     2  55.4      28.4       36    29.93         10      NNW
## 4  2011-01-01     3  53.6      28.4       38    29.94         10    North
## 5  2011-01-01     4    NA        NA       NA    29.99         10      NNW
## 6  2011-01-01     5    NA        NA       NA    30.02         10    North
## 7  2011-01-01     6  53.1      17.1       24    30.05         10    North
## 8  2011-01-01     7  53.1      16.0       23    30.07         10    North
## 9  2011-01-01     8  54.0      18.0       24    30.09         10    North
## 10 2011-01-01     9  55.4      17.6       23    30.09         10      NNE
## # ... with 8,713 more rows, and 6 more variables: wind_dir2 <int>,
## #   wind_speed <dbl>, gust_speed <dbl>, precip <dbl>, conditions <chr>,
## #   events <chr>

— .class #id

Dier Veriler

     tbl_df(planes)

## # A tibble: 2,853 x 9
##     plane  year               mfr          model no.eng no.seats speed
##     <chr> <int>             <chr>          <chr>  <int>    <int> <int>
## 1  N576AA  1991 MCDONNELL DOUGLAS DC-9-82(MD-82)      2      172    NA
## 2  N557AA  1993        MARZ BARRY      KITFOX IV      1        2    NA
## 3  N403AA  1974             RAVEN           S55A     NA        1    60
## 4  N492AA  1989 MCDONNELL DOUGLAS DC-9-82(MD-82)      2      172    NA
## 5  N262AA  1985 MCDONNELL DOUGLAS DC-9-82(MD-82)      2      172    NA
## 6  N493AA  1989 MCDONNELL DOUGLAS DC-9-82(MD-82)      2      172    NA
## 7  N477AA  1988 MCDONNELL DOUGLAS DC-9-82(MD-82)      2      172    NA
## 8  N476AA  1988 MCDONNELL DOUGLAS DC-9-82(MD-82)      2      172    NA
## 9  N504AA    NA AUTHIER ANTHONY P      TIERRA II      1        2    NA
## 10 N565AA  1987 MCDONNELL DOUGLAS DC-9-83(MD-83)      2      172    NA
## # ... with 2,843 more rows, and 2 more variables: engine <chr>, type <chr>

— .class #id

Dier Veriler

     tbl_df(airports)

## # A tibble: 3,376 x 7
##     iata              airport             city state country      lat
##    <chr>                <chr>            <chr> <chr>   <chr>    <dbl>
## 1    00M             Thigpen       Bay Springs    MS     USA 31.95376
## 2    00R Livingston Municipal       Livingston    TX     USA 30.68586
## 3    00V          Meadow Lake Colorado Springs    CO     USA 38.94575
## 4    01G         Perry-Warsaw            Perry    NY     USA 42.74135
## 5    01J     Hilliard Airpark         Hilliard    FL     USA 30.68801
## 6    01M    Tishomingo County          Belmont    MS     USA 34.49167
## 7    02A          Gragg-Wade           Clanton    AL     USA 32.85049
## 8    02C              Capitol       Brookfield    WI     USA 43.08751
## 9    02G    Columbiana County   East Liverpool    OH     USA 40.67331
## 10   03D     Memphis Memorial          Memphis    MO     USA 40.44726
## # ... with 3,366 more rows, and 1 more variables: long <dbl>
…
— .class #id

Group By (Gruplama)

     flights %>%
            group_by(date) %>%
            summarize(
                 dep = mean(dep_delay, na.rm = T),
                 arr = mean(arr_delay, na.rm = T)
            )

## # A tibble: 365 x 3
##                   date       dep       arr
##                  <chr>     <dbl>     <dbl>
## 1  2011-01-01 12:00:00 10.708029 10.067642
## 2  2011-01-02 12:00:00 15.661169 10.509745
## 3  2011-01-03 12:00:00 13.414286  6.038627
## 4  2011-01-04 12:00:00 11.903614  7.970740
## 5  2011-01-05 12:00:00  6.325383  4.172650
## 6  2011-01-06 12:00:00  5.283333  6.069909
## 7  2011-01-07 12:00:00  5.365152  3.907295
## 8  2011-01-08 12:00:00  7.655311  3.070140
## 9  2011-01-09 12:00:00 20.748709 17.254325
## 10 2011-01-10 12:00:00 12.322061 11.040388
## # ... with 355 more rows
…
— .class #id

Group By (Gruplama)

     flights %>%
            group_by(date) %>%
            summarize(
                 dep = mean(dep_delay, na.rm = T),
                 arr = mean(arr_delay, na.rm = T),
                 over_15 = mean(dep_delay > 15),
                 over_15_total = sum(dep_delay > 15)
            )

## # A tibble: 365 x 5
##                   date       dep       arr   over_15 over_15_total
##                  <chr>     <dbl>     <dbl>     <dbl>         <int>
## 1  2011-01-01 12:00:00 10.708029 10.067642        NA            NA
## 2  2011-01-02 12:00:00 15.661169 10.509745        NA            NA
## 3  2011-01-03 12:00:00 13.414286  6.038627        NA            NA
## 4  2011-01-04 12:00:00 11.903614  7.970740        NA            NA
## 5  2011-01-05 12:00:00  6.325383  4.172650        NA            NA
## 6  2011-01-06 12:00:00  5.283333  6.069909 0.1257576            83
## 7  2011-01-07 12:00:00  5.365152  3.907295        NA            NA
## 8  2011-01-08 12:00:00  7.655311  3.070140        NA            NA
## 9  2011-01-09 12:00:00 20.748709 17.254325        NA            NA
## 10 2011-01-10 12:00:00 12.322061 11.040388        NA            NA
## # ... with 355 more rows
…
Bo verileri (NA) filtreleme

     flights %>%
            group_by(date) %>%
            filter(!is.na(dep_delay)) %>%
            filter(!is.na(arr_delay)) %>%
            summarize(
                 dep = mean(dep_delay),
                 arr = mean(arr_delay),
                 over_15 = mean(dep_delay > 15),
                 over_15_total = sum(dep_delay > 15)
            )

## # A tibble: 365 x 5
##                   date       dep       arr   over_15 over_15_total
##                  <chr>     <dbl>     <dbl>     <dbl>         <int>
## 1  2011-01-01 12:00:00 10.667276 10.067642 0.2431444           133
## 2  2011-01-02 12:00:00 15.661169 10.509745 0.3178411           212
## 3  2011-01-03 12:00:00 13.442060  6.038627 0.2718169           190
## 4  2011-01-04 12:00:00 11.903614  7.970740 0.2891566           168
## 5  2011-01-05 12:00:00  6.328205  4.172650 0.1521368            89
## 6  2011-01-06 12:00:00  5.293313  6.069909 0.1261398            83
## 7  2011-01-07 12:00:00  5.270517  3.907295 0.1382979            91
## 8  2011-01-08 12:00:00  7.655311  3.070140 0.2004008           100
## 9  2011-01-09 12:00:00 20.814879 17.254325 0.4498270           260
## 10 2011-01-10 12:00:00 12.337641 11.040388 0.2714055           168
## # ... with 355 more rows
…
— .class #id

Ayn problem alternatif zm

flights %>% 
  group_by(carrier, flight, dest) %>% 
  filter(n() == 365)

## Source: local data frame [2,555 x 14]
## Groups: carrier, flight, dest [7]
## 
##                   date  hour minute   dep   arr dep_delay arr_delay
##                  <chr> <int>  <int> <int> <int>     <int>     <int>
## 1  2011-01-01 12:00:00    17     56  1756  2112         1        -3
## 2  2011-01-02 12:00:00    18     23  1823  2132        28        17
## 3  2011-01-03 12:00:00    17     55  1755  2106         0        -9
## 4  2011-01-04 12:00:00    17     57  1757  2122         2         7
## 5  2011-01-05 12:00:00    17     51  1751  2100        -4       -15
## 6  2011-01-06 12:00:00    17     46  1746  2120        -9         5
## 7  2011-01-07 12:00:00    17     57  1757  2108         2        -7
## 8  2011-01-08 12:00:00    17     49  1749  2100        -6       -15
## 9  2011-01-09 12:00:00    18     10  1810  2123        15         8
## 10 2011-01-10 12:00:00    19     34  1934  2235        99        80
## # ... with 2,545 more rows, and 7 more variables: carrier <chr>,
## #   flight <int>, dest <chr>, plane <chr>, cancelled <int>, time <int>,
## #   dist <int>

— .class #id

Uu sresine bal olarak gecikmeler nasl?

Uu srelerini hesapla. Bunlara gre tm uular gruplandr. Her gruptaki ortalama gecikmeyi ve toplam uu saysn gster.

per_hour <- flights %>%
  filter(cancelled == 0) %>%
  mutate(time = hour + minute / 60) %>%
  group_by(time) %>%
  summarise(arr_delay = mean(arr_delay, na.rm = TRUE), n = n())
per_hour

## # A tibble: 1,207 x 3
##          time arr_delay     n
##         <dbl>     <dbl> <int>
## 1  0.01666667  29.71429     7
## 2  0.03333333  64.00000     2
## 3  0.05000000 141.00000     4
## 4  0.06666667  91.71429     7
## 5  0.08333333 114.00000     3
## 6  0.10000000  51.00000     5
## 7  0.11666667  90.33333     6
## 8  0.13333333  91.00000     2
## 9  0.15000000 103.33333     3
## 10 0.16666667 130.66667     3
## # ... with 1,197 more rows
…
library("readr")
write_csv(per_hour, "per_hour.csv")

— .class #id

30'dan fazla uu yapan uaklar hangileridir?

flights %>%
  filter(!is.na(arr_delay)) %>%
  group_by(plane) %>%
    summarise(n = n()) %>%
  filter(n > 30) 

## # A tibble: 1,376 x 2
##     plane     n
##     <chr> <int>
## 1  N0EGMQ    37
## 2  N10156   311
## 3  N10575    94
## 4  N11106   305
## 5  N11107   341
## 6  N11109   325
## 7  N11113   280
## 8  N11119   126
## 9  N11121   328
## 10 N11127   328
## # ... with 1,366 more rows

— .class #id

30'dan fazla uu yapan uaklara ait uular hangileridir?

planes = flights %>%
  filter(!is.na(arr_delay)) %>%
  group_by(plane) %>%
  filter(n() > 30) 
planes

## Source: local data frame [205,944 x 14]
## Groups: plane [1,376]
## 
##                   date  hour minute   dep   arr dep_delay arr_delay
##                  <chr> <int>  <int> <int> <int>     <int>     <int>
## 1  2011-01-31 12:00:00     9     24   924  1413        -1        23
## 2  2011-01-31 12:00:00    18     25  1825  1925         0        -9
## 3  2011-01-31 12:00:00    15     54  1554  1650        -1        -5
## 4  2011-01-31 12:00:00    15     22  1522  1632        -3        -2
## 5  2011-01-31 12:00:00    15     36  1536  1635         1         7
## 6  2011-01-31 12:00:00    19     16  1916  2103         6         2
## 7  2011-01-31 12:00:00    18      3  1803  1927        28        15
## 8  2011-01-31 12:00:00    12      6  1206  1631         1        -2
## 9  2011-01-31 12:00:00    14     25  1425  1848         0        -9
## 10 2011-01-31 12:00:00     6      7   607  1022         7         2
## # ... with 205,934 more rows, and 7 more variables: carrier <chr>,
## #   flight <int>, dest <chr>, plane <chr>, cancelled <int>, time <int>,
## #   dist <int>

— .class #id

Bu uularn arasnda 5 dk'dan daha az var gecikmesi olanlar hangileri?

planes %>% filter(arr_delay < 5)

## Source: local data frame [128,610 x 14]
## Groups: plane [1,376]
## 
##                   date  hour minute   dep   arr dep_delay arr_delay
##                  <chr> <int>  <int> <int> <int>     <int>     <int>
## 1  2011-01-31 12:00:00    18     25  1825  1925         0        -9
## 2  2011-01-31 12:00:00    15     54  1554  1650        -1        -5
## 3  2011-01-31 12:00:00    15     22  1522  1632        -3        -2
## 4  2011-01-31 12:00:00    19     16  1916  2103         6         2
## 5  2011-01-31 12:00:00    12      6  1206  1631         1        -2
## 6  2011-01-31 12:00:00    14     25  1425  1848         0        -9
## 7  2011-01-31 12:00:00     6      7   607  1022         7         2
## 8  2011-01-31 12:00:00    10     41  1041  1449        -4       -26
## 9  2011-01-31 12:00:00     8     51   851  1052         1       -27
## 10 2011-01-31 12:00:00    19     19  1919  2231        -1       -12
## # ... with 128,600 more rows, and 7 more variables: carrier <chr>,
## #   flight <int>, dest <chr>, plane <chr>, cancelled <int>, time <int>,
## #   dist <int>
…
— .class #id

Destinasyonlara gre en ok var gecikmeli uular

flights %>%
  group_by(dest) %>%
  summarise(arr_delay = mean(arr_delay, na.rm = TRUE), n = n()) %>%
  arrange(desc(arr_delay)) 

## # A tibble: 116 x 3
##     dest arr_delay     n
##    <chr>     <dbl> <int>
## 1    ANC  26.08065   125
## 2    CID  17.80049   410
## 3    DSM  15.95110   647
## 4    SFO  14.89036  2818
## 5    BPT  14.33333     3
## 6    GRR  13.71729   677
## 7    DAY  13.67117   451
## 8    VPS  12.45718   880
## 9    ECP  12.42222   729
## 10   SAV  12.33137   863
## # ... with 106 more rows

— .class #id

Bu uularn destinasyonlarnn lokasyon koordinatlar?

delays <- flights %>%
  group_by(dest) %>%
  summarise(arr_delay = mean(arr_delay, na.rm = TRUE), n = n()) %>%
  arrange(desc(arr_delay)) %>%
  inner_join(location, by="dest")
delays

## # A tibble: 114 x 6
##     dest arr_delay     n                                name      lat
##    <chr>     <dbl> <int>                               <chr>    <dbl>
## 1    ANC  26.08065   125 Ted Stevens Anchorage International 61.17432
## 2    CID  17.80049   410                       Eastern Iowa  41.88459
## 3    DSM  15.95110   647            Des Moines International 41.53493
## 4    SFO  14.89036  2818         San Francisco International 37.61900
## 5    BPT  14.33333     3            Southeast Texas Regional 29.95083
## 6    GRR  13.71729   677           Kent County International 42.88082
## 7    DAY  13.67117   451             James M Cox Dayton Intl 39.90238
## 8    VPS  12.45718   880                Eglin Air Force Base 30.48325
## 9    SAV  12.33137   863              Savannah International 32.12758
## 10   RIC  12.30123   900              Richmond International 37.50517
## # ... with 104 more rows, and 1 more variables: long <dbl>
…
